{
    "cluster": "default",
    "serviceName": "sonar",
    "taskDefinition": "arn:aws:ecs:us-east-2:749184786022:task-definition/sonar:27",
    "loadBalancers": [
        {
            "targetGroupArn": "arn:aws:elasticloadbalancing:us-east-2:749184786022:targetgroup/services-default-default/f752aa04a6ffde90",
            "containerName": "sonar",
            "containerPort": 9000
        }
    ],
    "desiredCount": 1,
    "role": "arn:aws:iam::749184786022:role/aws-service-role/ecs.amazonaws.com/AWSServiceRoleForECS",
    "deploymentConfiguration": {
        "maximumPercent": 100,
        "minimumHealthyPercent": 0
    }
}
